# Exported from Wings 3D 1.5.4
mtllib torpedobay.mtl
o Cube1
#214 vertices, 420 faces
v -1.27366951 1.90432000 -4.47665664
v -1.27366951 1.90432000 4.47665664
v 1.27433049 3.2000000e-4 -4.47665664
v 1.27433049 3.2000000e-4 4.47665664
v 0.55203293 1.33736744 -4.47665664
v 0.55203293 1.33736744 4.47665664
v 1.02848340 0.70722029 4.47665664
v 1.02848340 0.70722029 -4.47665664
v -0.31474491 1.71225388 4.47665664
v -0.31474491 1.71225388 -4.47665664
v -0.32070213 1.69819686 3.87678465
v -0.32070213 1.69819686 -3.87678465
v 0.42941150 1.37376837 3.87678465
v 0.42941150 1.37376837 -3.87678465
v -1.15057961 1.86441572 -3.87678465
v -1.15057961 1.86441572 3.87678465
v -0.64228492 0.80251813 3.91214093
v -0.64228492 0.80251813 -3.91214093
v 0.19638199 0.96819051 3.91214093
v 0.19638199 0.96819051 -3.91214093
v -1.24891651 1.36825426 -3.91214093
v -1.24891651 1.36825426 3.91214093
v -1.27366951 1.90432000 -1.90623919
v -1.27366951 1.90432000 -1.49080545
v -1.27366951 1.90432000 1.49080545
v -1.27366951 1.90432000 1.90623919
v -1.15057961 1.86441572 1.82273701
v -1.15057961 1.86441572 1.46297139
v -1.15057961 1.86441572 -1.46297139
v -1.15057961 1.86441572 -1.82273701
v -1.27366951 2.02412800 1.90623919
v -1.15057961 1.98422372 1.82273701
v -1.15057961 1.98422372 1.46297139
v -1.27366951 2.02412800 1.49080545
v -1.27366951 2.02412800 -1.49080545
v -1.15057961 1.98422372 -1.46297139
v -1.15057961 1.98422372 -1.82273701
v -1.27366951 2.02412800 -1.90623919
v -1.21212456 1.88436786 4.17672065
v 0.49072222 1.35556790 4.17672065
v -0.31772352 1.70522537 4.17672065
v -1.21212456 1.88436786 -4.17672065
v 0.49072222 1.35556790 -4.17672065
v -0.31772352 1.70522537 -4.17672065
v 0.55203293 1.33736744 -4.17224399
v 0.55203293 1.33736744 4.17224399
v -0.32070213 1.77192486 3.87678465
v -0.32070213 1.77192486 -3.87678465
v 0.42941150 1.50942789 3.87678465
v 0.42941150 1.50942789 -3.87678465
v 0.49072222 1.49122742 4.17672065
v -0.31772352 1.77895337 4.17672065
v 0.49072222 1.49122742 -4.17672065
v -0.31772352 1.77895337 -4.17672065
v 0.55203293 1.47302696 4.17224399
v 0.55203293 1.47302696 -4.17224399
v -1.04051639 3.2000000e-4 -4.47665664
v -1.04051639 3.2000000e-4 4.47665664
v -1.27366951 1.18547311 4.47665664
v -1.27366951 1.18547311 -4.47665664
v -1.27366951 1.18547311 -2.68599398
v -1.27366951 1.18547311 -0.89533133
v -1.27366951 1.18547311 0.89533133
v -1.27366951 1.18547311 2.68599398
v -1.04051639 3.2000000e-4 2.68599398
v -1.04051639 3.2000000e-4 0.89533133
v -1.04051639 3.2000000e-4 -0.89533133
v -1.04051639 3.2000000e-4 -2.68599398
v -1.27366951 0.23347311 -1.12848444
v -1.27366951 0.71916689 -1.12848444
v -1.27366951 0.71916689 -2.45284087
v -1.27366951 0.23347311 -2.45284087
v -1.27366951 0.71916689 2.91914710
v -1.27366951 0.23347311 2.91914710
v -1.27366951 0.23347311 4.24350353
v -1.27366951 0.71916689 4.24350353
v -1.27366951 0.23347311 0.66217822
v -1.27366951 0.71916689 0.66217822
v -1.27366951 0.71916689 -0.66217822
v -1.27366951 0.23347311 -0.66217822
v -1.27366951 0.23347311 -2.91914710
v -1.27366951 0.71916689 -2.91914710
v -1.27366951 0.71916689 -4.24350353
v -1.27366951 0.23347311 -4.24350353
v -1.27366951 0.23347311 2.45284087
v -1.27366951 0.71916689 2.45284087
v -1.27366951 0.71916689 1.12848444
v -1.27366951 0.23347311 1.12848444
v -1.52044733 0.63464898 2.91914710
v -1.36392489 0.24642917 2.91914710
v -1.36392489 0.24642917 4.24350353
v -1.52044733 0.63464898 4.24350353
v -1.36392489 0.24642917 2.45284087
v -1.52044733 0.63464898 2.45284087
v -1.52044733 0.63464898 1.12848444
v -1.36392489 0.24642917 1.12848444
v -1.36392489 0.24642917 0.66217822
v -1.52044733 0.63464898 0.66217822
v -1.52044733 0.63464898 -0.66217822
v -1.36392489 0.24642917 -0.66217822
v -1.36392489 0.24642917 -1.12848444
v -1.52044733 0.63464898 -1.12848444
v -1.52044733 0.63464898 -2.45284087
v -1.36392489 0.24642917 -2.45284087
v -1.36392489 0.24642917 -2.91914710
v -1.52044733 0.63464898 -2.91914710
v -1.52044733 0.63464898 -4.24350353
v -1.36392489 0.24642917 -4.24350353
v -1.69098215 1.13258147 -4.24350353
v -1.69098215 1.13258147 -2.91914710
v -1.44420432 1.21709938 -2.91914710
v -1.44420432 1.21709938 -4.24350353
v -1.69098215 1.13258147 -2.45284087
v -1.69098215 1.13258147 -1.12848444
v -1.44420432 1.21709938 -1.12848444
v -1.44420432 1.21709938 -2.45284087
v -1.69098215 1.13258147 -0.66217822
v -1.69098215 1.13258147 0.66217822
v -1.44420432 1.21709938 0.66217822
v -1.44420432 1.21709938 -0.66217822
v -1.69098215 1.13258147 1.12848444
v -1.69098215 1.13258147 2.45284087
v -1.44420432 1.21709938 2.45284087
v -1.44420432 1.21709938 1.12848444
v -1.69098215 1.13258147 2.91914710
v -1.69098215 1.13258147 4.24350353
v -1.44420432 1.21709938 4.24350353
v -1.44420432 1.21709938 2.91914710
v -1.69098215 3.36484938 -4.24350353
v -1.69098215 3.36484938 -2.91914710
v -1.44420432 3.44936729 -2.91914710
v -1.44420432 3.44936729 -4.24350353
v -1.69098215 3.36484938 -2.45284087
v -1.69098215 3.36484938 -1.12848444
v -1.44420432 3.44936729 -1.12848444
v -1.44420432 3.44936729 -2.45284087
v -1.69098215 3.36484938 -0.66217822
v -1.69098215 3.36484938 0.66217822
v -1.44420432 3.44936729 0.66217822
v -1.44420432 3.44936729 -0.66217822
v -1.69098215 3.36484938 1.12848444
v -1.69098215 3.36484938 2.45284087
v -1.44420432 3.44936729 2.45284087
v -1.44420432 3.44936729 1.12848444
v -1.69098215 3.36484938 2.91914710
v -1.69098215 3.36484938 4.24350353
v -1.44420432 3.44936729 4.24350353
v -1.44420432 3.44936729 2.91914710
v -1.72473881 3.47912291 -4.24350353
v -1.72473881 3.47912291 -2.91914710
v -1.51097346 3.62861186 -2.91914710
v -1.51097346 3.62861186 -4.24350353
v -1.72473881 3.47912291 -2.45284087
v -1.72473881 3.47912291 -1.12848444
v -1.51097346 3.62861186 -1.12848444
v -1.51097346 3.62861186 -2.45284087
v -1.72473881 3.47912291 -0.66217822
v -1.72473881 3.47912291 0.66217822
v -1.51097346 3.62861186 0.66217822
v -1.51097346 3.62861186 -0.66217822
v -1.72473881 3.47912291 1.12848444
v -1.72473881 3.47912291 2.45284087
v -1.51097346 3.62861186 2.45284087
v -1.51097346 3.62861186 1.12848444
v -1.72473881 3.47912291 2.91914710
v -1.72473881 3.47912291 4.24350353
v -1.51097346 3.62861186 4.24350353
v -1.51097346 3.62861186 2.91914710
v -1.84848082 3.56407377 -4.24350353
v -1.84848082 3.56407377 -2.91914710
v -1.66521294 3.74969558 -2.91914710
v -1.66521294 3.74969558 -4.24350353
v -1.84848082 3.56407377 -2.45284087
v -1.84848082 3.56407377 -1.12848444
v -1.66521294 3.74969558 -1.12848444
v -1.66521294 3.74969558 -2.45284087
v -1.84848082 3.56407377 -0.66217822
v -1.84848082 3.56407377 0.66217822
v -1.66521294 3.74969558 0.66217822
v -1.66521294 3.74969558 -0.66217822
v -1.84848082 3.56407377 1.12848444
v -1.84848082 3.56407377 2.45284087
v -1.66521294 3.74969558 2.45284087
v -1.66521294 3.74969558 1.12848444
v -1.84848082 3.56407377 2.91914710
v -1.84848082 3.56407377 4.24350353
v -1.66521294 3.74969558 4.24350353
v -1.66521294 3.74969558 2.91914710
v -2.29079616 3.64580918 -4.24350353
v -2.29079616 3.64580918 -2.91914710
v -2.18663899 3.88496155 -2.91914710
v -2.18663899 3.88496155 -4.24350353
v -2.29079616 3.64580918 -2.45284087
v -2.29079616 3.64580918 -1.12848444
v -2.18663899 3.88496155 -1.12848444
v -2.18663899 3.88496155 -2.45284087
v -2.29079616 3.64580918 -0.66217822
v -2.29079616 3.64580918 0.66217822
v -2.18663899 3.88496155 0.66217822
v -2.18663899 3.88496155 -0.66217822
v -2.29079616 3.64580918 1.12848444
v -2.29079616 3.64580918 2.45284087
v -2.18663899 3.88496155 2.45284087
v -2.18663899 3.88496155 1.12848444
v -2.29079616 3.64580918 2.91914710
v -2.29079616 3.64580918 4.24350353
v -2.18663899 3.88496155 4.24350353
v -2.18663899 3.88496155 2.91914710
v -0.68915945 2.59852489 3.87678465
v -0.68915945 2.59852489 -3.87678465
v -2.5564455e-2 3.07556366 3.87678465
v -2.5564455e-2 3.07556366 -3.87678465
v -1.25796234 1.97179639 -3.87678465
v -1.25796234 1.97179639 3.87678465
vt 6.9333333e-3 0.38756200
vt 1.3625632e-2 0.40845416
vt 1.4919658e-2 0.38623673
vt 1.5580601e-2 0.20539779
vt 1.5768556e-2 0.55048891
vt 2.3405477e-2 0.20747361
vt 2.4309442e-2 0.18520675
vt 3.9895423e-2 0.53629815
vt 4.2653021e-2 4.8051367e-2
vt 6.2089526e-2 6.0587890e-2
vt 8.6262374e-2 0.53445084
vt 8.9590097e-2 0.58997141
vt 9.1231485e-2 0.58342543
vt 0.10770360 6.3929994e-2
vt 0.11338722 1.4386667e-2
vt 0.11481926 2.0848916e-2
vt 0.13355772 0.53800631
vt 0.15548300 6.3097471e-2
vt 0.16056716 0.54058878
vt 0.16251742 0.55440852
vt 0.17710512 0.50987560
vt 0.17710512 0.47704963
vt 0.17710711 0.46505684
vt 0.18134675 6.0413529e-2
vt 0.18403845 4.3499215e-2
vt 0.21972945 1.2516463e-2
vt 0.22384022 9.8546521e-2
vt 0.22384022 0.16410870
vt 0.22506788 0.92815790
vt 0.22506788 0.49040354
vt 0.22506788 0.95851110
vt 0.22506788 0.57392487
vt 0.22598174 0.76065822
vt 0.22946668 0.39771654
vt 0.22982806 0.49931537
vt 0.22982808 0.50366147
vt 0.23379610 0.33733087
vt 0.24251018 0.79860871
vt 0.24645543 0.23657506
vt 0.25743301 0.30105336
vt 0.26525753 0.26338823
vt 0.27748410 0.47870367
vt 0.27748413 0.48670050
vt 0.28110785 0.47763078
vt 0.28110788 0.48562761
vt 0.28110788 0.48562761
vt 0.28110831 0.47763078
vt 0.28473157 0.48670069
vt 0.28473201 0.47870386
vt 0.28593913 0.76065822
vt 0.29617166 0.74768783
vt 0.30246757 0.79860871
vt 0.30313579 0.49040354
vt 0.30313579 0.92815790
vt 0.30313579 0.57392487
vt 0.30313579 0.95851110
vt 0.30515965 0.23855118
vt 0.31152089 0.39034992
vt 0.31580797 0.73420719
vt 0.32116473 0.36184039
vt 0.32116473 0.71607341
vt 0.32525398 0.77714370
vt 0.32821064 0.37372832
vt 0.32828388 0.30770071
vt 0.33238675 0.50366411
vt 0.33238699 0.49931800
vt 0.33340184 0.29941856
vt 0.34395761 0.43691506
vt 0.34488934 0.35683151
vt 0.34589652 0.76065822
vt 0.34822647 0.28282472
vt 0.34972986 0.75792922
vt 0.35061178 0.41035732
vt 0.35061178 0.41835415
vt 0.35061178 0.46824522
vt 0.35612904 0.74768783
vt 0.35706579 0.42942808
vt 0.35895125 0.45877634
vt 0.36032528 0.37525232
vt 0.36032528 0.72948535
vt 0.36152495 0.45772786
vt 0.36242496 0.79860871
vt 0.36378215 0.45749405
vt 0.36618636 0.30974591
vt 0.36972028 0.27066355
vt 0.36975253 0.42709911
vt 0.37306463 0.22121909
vt 0.37576536 0.73420719
vt 0.38112212 0.36184039
vt 0.38112212 0.71607341
vt 0.38120370 0.92815790
vt 0.38120370 0.49040354
vt 0.38120370 0.57392487
vt 0.38120370 0.95851110
vt 0.38254182 0.34937530
vt 0.38510940 0.47763078
vt 0.38510940 0.49300730
vt 0.38510940 0.49300730
vt 0.38510940 0.50838382
vt 0.38510940 0.50988094
vt 0.38510940 0.52376034
vt 0.38510940 0.50838382
vt 0.38510940 0.52376034
vt 0.38510940 0.53913686
vt 0.38521137 0.77714370
vt 0.38656314 0.41380572
vt 0.38738703 0.21916312
vt 0.38738703 0.29623666
vt 0.38925396 0.41672461
vt 0.39018161 0.24593351
vt 0.39368467 0.43470612
vt 0.39821227 0.45428398
vt 0.40335375 0.31292151
vt 0.40585391 0.76065822
vt 0.40648421 0.27325939
vt 0.40818386 0.28282472
vt 0.40968460 0.47408902
vt 0.40968725 0.75792922
vt 0.41231708 0.47763078
vt 0.41556242 0.40845697
vt 0.41608643 0.74768783
vt 0.41666553 0.40520932
vt 0.41791544 0.40236234
vt 0.41878994 0.40343560
vt 0.41939759 0.41316127
vt 0.42028267 0.37525232
vt 0.42028267 0.72948535
vt 0.42238235 0.79860871
vt 0.42849083 0.46407734
vt 0.43302202 0.22121909
vt 0.43522670 0.92815790
vt 0.43522670 0.49040354
vt 0.43522670 0.57392487
vt 0.43522670 0.95851110
vt 0.43572275 0.73420719
vt 0.44014291 0.29086122
vt 0.44107950 0.36184039
vt 0.44107950 0.71607341
vt 0.44318840 0.42228371
vt 0.44347330 0.41224002
vt 0.44516876 0.77714370
vt 0.44734442 0.21916312
vt 0.44734442 0.29623666
vt 0.45927161 0.49040354
vt 0.45927161 0.57392487
vt 0.45927161 0.92815790
vt 0.45927161 0.95851110
vt 0.46317731 0.52376034
vt 0.46317731 0.53913686
vt 0.46317731 0.50838382
vt 0.46317731 0.52376034
vt 0.46317731 0.49300730
vt 0.46317731 0.50838382
vt 0.46317731 0.47763078
vt 0.46317731 0.47763078
vt 0.46317731 0.49300730
vt 0.46317731 0.55569869
vt 0.46317731 0.57107521
vt 0.46814125 0.28282472
vt 0.46903340 0.40012198
vt 0.46964464 0.75792922
vt 0.47604382 0.74768783
vt 0.47797330 0.42313330
vt 0.47820444 0.41310488
vt 0.47920515 0.42809283
vt 0.48024006 0.37525232
vt 0.48024006 0.72948535
vt 0.49297941 0.22121909
vt 0.49462658 0.29623666
vt 0.49462658 0.21916312
vt 0.49493164 0.47763078
vt 0.49493164 0.55569869
vt 0.49568013 0.73420719
vt 0.50103689 0.36184039
vt 0.50103689 0.71607341
vt 0.50512615 0.77714370
vt 0.50649068 0.47763078
vt 0.50649068 0.55569869
vt 0.50649068 0.47763078
vt 0.50649068 0.55569869
vt 0.50730181 0.21916312
vt 0.50730181 0.29623666
vt 0.50821731 0.31834988
vt 0.50894898 0.22121909
vt 0.50909541 0.28111624
vt 0.51329461 0.92815790
vt 0.51329461 0.49040354
vt 0.51329461 0.57392487
vt 0.51329461 0.95851110
vt 0.51533850 0.47763078
vt 0.51533850 0.55569869
vt 0.52168833 0.37525232
vt 0.52168833 0.72948535
vt 0.52539657 0.35588641
vt 0.52809864 0.28282472
vt 0.52861569 0.25715405
vt 0.52960202 0.75792922
vt 0.53228375 0.75792922
vt 0.53378714 0.28282472
vt 0.53733953 0.49040354
vt 0.53733953 0.57392487
vt 0.53733953 0.92815790
vt 0.53733953 0.95851110
vt 0.53961650 0.57558475
vt 0.53961650 0.63128521
vt 0.53961650 0.76287251
vt 0.53961650 0.76989645
vt 0.53961650 0.60025945
vt 0.54019745 0.37525232
vt 0.54019745 0.72948535
vt 0.54053858 0.79083200
vt 0.54124522 0.55569869
vt 0.54124522 0.57107521
vt 0.54185345 0.47763078
vt 0.54185345 0.55569869
vt 0.54185345 0.47763078
vt 0.54185345 0.55569869
vt 0.54355827 0.31956097
vt 0.54545134 0.28199946
vt 0.55070127 0.47763078
vt 0.55070127 0.55569869
vt 0.55293679 0.22121909
vt 0.55458397 0.21916312
vt 0.55458397 0.29623666
vt 0.55503073 0.83250222
vt 0.55675963 0.77714370
vt 0.56084888 0.71607341
vt 0.56084888 0.36184039
vt 0.56271473 0.36705786
vt 0.56620564 0.73420719
vt 0.56725920 0.21916312
vt 0.56725920 0.29623666
vt 0.56890637 0.22121909
vt 0.56930459 0.36446271
vt 0.56934643 0.73640487
vt 0.56934643 0.85047689
vt 0.57721622 0.47763078
vt 0.57721622 0.55569869
vt 0.57941249 0.29941856
vt 0.57941249 0.37748647
vt 0.57941249 0.45555438
vt 0.57941249 0.53362229
vt 0.57941249 0.39653601
vt 0.57941249 0.45555438
vt 0.58164571 0.37525232
vt 0.58164571 0.72948535
vt 0.58311644 0.86964801
vt 0.58584195 0.74768783
vt 0.58826030 0.29941856
vt 0.58826030 0.37748647
vt 0.58826030 0.45555438
vt 0.58826030 0.53362229
vt 0.59136252 0.49040354
vt 0.59136252 0.92815790
vt 0.59136252 0.95851110
vt 0.59136252 0.57392487
vt 0.59224114 0.75792922
vt 0.59374453 0.28282472
vt 0.60634491 0.54833588
vt 0.61116681 0.37748647
vt 0.61116681 0.45555438
vt 0.61454136 0.21916312
vt 0.61454136 0.29623666
vt 0.61477526 0.29941856
vt 0.61477526 0.37748647
vt 0.61477526 0.45555438
vt 0.61477526 0.53362229
vt 0.61671702 0.77714370
vt 0.61768441 0.63128521
vt 0.61768441 0.76287251
vt 0.61768441 0.57558475
vt 0.61768441 0.60025945
vt 0.61768441 0.76989645
vt 0.61768441 0.57558475
vt 0.61768441 0.60025945
vt 0.61768441 0.63128521
vt 0.61768441 0.76287251
vt 0.61768441 0.76989645
vt 0.62080627 0.71607341
vt 0.62080627 0.36184039
vt 0.62272586 0.37748647
vt 0.62272586 0.45555438
vt 0.62616303 0.73420719
vt 0.62886376 0.22121909
vt 0.63416105 0.53648657
vt 0.63416105 0.44268039
vt 0.63416105 0.45677790
vt 0.63416105 0.53484581
vt 0.63416105 0.56097548
vt 0.63416105 0.56803790
vt 0.63421109 0.89174675
vt 0.63950343 0.79860871
vt 0.64030088 0.45677790
vt 0.64160310 0.37525232
vt 0.64160310 0.72948535
vt 0.64178869 0.53484581
vt 0.64178869 0.55605321
vt 0.64342904 0.28197580
vt 0.64524472 0.31780502
vt 0.64579934 0.74768783
vt 0.64951024 6.6099335e-3
vt 0.64951024 0.69588828
vt 0.65219853 0.75792922
vt 0.65370192 0.28282472
vt 0.65536844 0.56097548
vt 0.65536844 0.56803790
vt 0.65603187 0.76065822
vt 0.66020864 0.25767151
vt 0.66023457 0.43786227
vt 0.66443391 0.35281491
vt 0.66591537 0.45677790
vt 0.66591537 0.53484581
vt 0.66731430 0.21826265
vt 0.66731430 0.32021935
vt 0.66752889 0.43285460
vt 0.66943043 0.49040354
vt 0.66943043 0.57392487
vt 0.66943043 0.92815790
vt 0.66943043 0.95851110
vt 0.66951877 0.29453112
vt 0.66951877 0.42611843
vt 0.67103781 0.44880427
vt 0.67433391 0.21826265
vt 0.67433391 0.32021935
vt 0.67449875 0.21916312
vt 0.67449875 0.29623666
vt 0.67657584 0.56097548
vt 0.67657584 0.56803790
vt 0.67667441 0.77714370
vt 0.67699373 0.79083200
vt 0.67747442 0.45677790
vt 0.67747442 0.53484581
vt 0.67821884 0.28023400
vt 0.67932727 0.31661023
vt 0.67957142 0.26517909
vt 0.68012989 0.44166665
vt 0.68076366 0.71607341
vt 0.68076366 0.36184039
vt 0.68406578 0.43110057
vt 0.68406578 0.29951327
vt 0.68534376 0.56097548
vt 0.68534376 0.56332775
vt 0.68534376 0.56803790
vt 0.68534376 0.57039017
vt 0.68612042 0.73420719
vt 0.68879808 0.24229439
vt 0.68882115 0.22121909
vt 0.69073760 0.86069418
vt 0.69073760 0.90306863
vt 0.69278284 0.56332775
vt 0.69278284 0.57039017
vt 0.69278284 0.56332775
vt 0.69278284 0.57039017
vt 0.69411844 0.27016124
vt 0.69411844 0.24153065
vt 0.69575232 0.57558475
vt 0.69575232 0.60025945
vt 0.69575232 0.63128521
vt 0.69575232 0.57558475
vt 0.69575232 0.60025945
vt 0.69575232 0.63128521
vt 0.69575232 0.76287251
vt 0.69575232 0.76989645
vt 0.69946082 0.79860871
vt 0.70022192 0.56097548
vt 0.70022192 0.56803790
vt 0.70156049 0.37525232
vt 0.70156049 0.72948535
vt 0.70488333 0.53318660
vt 0.70488333 0.55767551
vt 0.70488333 0.22091496
vt 0.70488333 0.29898287
vt 0.70488333 0.37705078
vt 0.70488333 0.45511869
vt 0.70488333 0.53318660
vt 0.70488333 0.56166854
vt 0.70488333 0.56873096
vt 0.70488333 0.29898287
vt 0.70488333 0.45511869
vt 0.70488333 0.37705078
vt 0.70575673 0.74768783
vt 0.71025822 0.22091496
vt 0.71025822 0.53318660
vt 0.71025822 0.29898287
vt 0.71025822 0.29898287
vt 0.71025822 0.37705078
vt 0.71025822 0.45511869
vt 0.71025822 0.45511869
vt 0.71025822 0.37705078
vt 0.71215592 0.75792922
vt 0.71251097 0.53810887
vt 0.71251097 0.55931627
vt 0.71348417 0.40593917
vt 0.71365125 0.55931627
vt 0.71365125 0.56637869
vt 0.71365930 0.28282472
vt 0.71458595 0.41529894
vt 0.71598926 0.76065822
vt 0.72151578 0.81999840
vt 0.73445614 0.21916312
vt 0.73445614 0.29623666
vt 0.73663180 0.77714370
vt 0.74072105 0.71607341
vt 0.74072105 0.36184039
vt 0.74595524 0.40211181
vt 0.74607781 0.73420719
vt 0.74703739 0.41154434
vt 0.74749834 0.49040354
vt 0.74749834 0.57392487
vt 0.74749834 0.92815790
vt 0.74749834 0.95851110
vt 0.74877854 0.22121909
vt 0.75941821 0.79860871
vt 0.76151788 0.37525232
vt 0.76151788 0.72948535
vt 0.76571412 0.74768783
vt 0.77211331 0.75792922
vt 0.77244304 0.27312547
vt 0.77361669 0.28282472
vt 0.77382023 0.57558475
vt 0.77382023 0.60025945
vt 0.77382023 0.63128521
vt 0.77382023 0.76287251
vt 0.77382023 0.76989645
vt 0.77382023 0.57558475
vt 0.77382023 0.60025945
vt 0.77594665 0.76065822
vt 0.77635499 0.30839304
vt 0.78719135 0.24837301
vt 0.79658919 0.77714370
vt 0.79703562 0.34100051
vt 0.80067844 0.71607341
vt 0.80067844 0.36184039
vt 0.80563423 0.26960883
vt 0.80603520 0.73420719
vt 0.80766771 0.41835415
vt 0.80766771 0.46824522
vt 0.80766771 0.41035732
vt 0.80766771 0.41835415
vt 0.80942541 0.30506249
vt 0.80991091 1.7430442e-2
vt 0.80991091 0.61434549
vt 0.81937560 0.79860871
vt 0.82567151 0.74768783
vt 0.82772067 6.6099335e-3
vt 0.82772067 0.28232127
vt 0.82772067 0.42017694
vt 0.82772067 0.55803261
vt 0.82772067 0.14446560
vt 0.82772067 0.69588828
vt 0.83590404 0.76065822
vt 0.85058244 1.7624196e-2
vt 0.85058244 0.61288537
vt 0.85188815 0.57558475
vt 0.85188815 0.60025945
vt 0.85188815 0.63128521
vt 0.85188815 0.76287251
vt 0.85188815 0.76989645
vt 0.85188815 0.57558475
vt 0.85188815 0.76287251
vt 0.85188815 0.76989645
vt 0.85188815 0.60025945
vt 0.85188815 0.63128521
vt 0.85402852 0.45705593
vt 0.85402852 0.53512384
vt 0.85906259 0.76050861
vt 0.87282885 1.7430442e-2
vt 0.87282885 0.61434549
vt 0.87933299 0.79860871
vt 0.88578285 0.45705593
vt 0.88578285 0.53512384
vt 0.89586143 0.76065822
vt 0.89588603 0.25990848
vt 0.89734189 0.45705593
vt 0.89734189 0.53512384
vt 0.90220458 0.45578957
vt 0.90220458 0.53385748
vt 0.90377667 0.29176911
vt 0.91088853 0.23657506
vt 0.91332605 1.7624196e-2
vt 0.91332605 0.61288537
vt 0.92650439 0.32059425
vt 0.92995606 0.57558475
vt 0.92995606 0.60025945
vt 0.92995606 0.63128521
vt 0.92995606 0.76287251
vt 0.92995606 0.76989645
vt 0.93203220 0.29086122
vt 0.93395891 0.45578957
vt 0.93395891 0.53385748
vt 0.93466933 0.66051213
vt 0.93531821 0.37242157
vt 0.94551795 0.45578957
vt 0.94551795 0.53385748
vt 0.95436577 0.53385748
vt 0.95436577 0.45578957
vt 0.96277150 1.2516463e-2
vt 0.96688228 9.8546521e-2
vt 0.96688228 0.16410870
vt 0.97368219 0.54833588
vt 0.97830326 1.7624196e-2
vt 0.97830326 0.61288537
vt 0.98088072 0.45578957
vt 0.98088072 0.53385748
vt 0.99767485 0.23855118
vn -5.5356298e-3 -1.7739338e-2 -0.99982732
vn -9.0014805e-3 -3.0014264e-2 0.99950894
vn -1.00000000 0.0000000e+0 0.0000000e+0
vn -1.00000000 -1.7919220e-16 0.0000000e+0
vn -1.00000000 -3.9372585e-17 0.0000000e+0
vn -1.00000000 6.0085568e-17 0.0000000e+0
vn -0.45765239 -0.88913120 0.0000000e+0
vn -0.53827497 -0.84276928 0.0000000e+0
vn -0.38268343 -0.92387953 0.0000000e+0
vn -0.53827497 -0.84276928 0.0000000e+0
vn -0.59813962 -0.72030044 0.35127806
vn -0.83329351 8.8408693e-2 0.54571588
vn -0.46148612 0.14187260 -0.87572983
vn -0.80685951 -0.54543797 -0.22688136
vn -0.71192043 0.11230543 -0.69322204
vn -0.69460424 -0.64659802 -0.31533467
vn -0.54295696 -0.59202778 0.59556767
vn -0.32192791 8.7060181e-2 0.94275286
vn -0.70057506 -0.65885281 0.27405760
vn -0.60858488 0.12689471 0.78327657
vn -0.71192043 0.11230543 -0.69322204
vn -0.69460424 -0.64659802 -0.31533467
vn -0.70057506 -0.65885281 0.27405760
vn -0.60858488 0.12689471 0.78327657
vn -0.46148612 0.14187260 -0.87572983
vn -0.61844176 -0.63208189 -0.46690714
vn -0.59813962 -0.72030044 0.35127806
vn -0.83329351 8.8408693e-2 0.54571588
vn -0.46148612 0.14187260 -0.87572983
vn -0.80685951 -0.54543797 -0.22688136
vn -0.66250330 -0.24680344 -0.70723224
vn -0.53451751 -0.68156515 -0.49975991
vn -0.53451751 -0.68156515 0.49975991
vn -0.66250330 -0.24680344 0.70723224
vn -0.53451751 -0.68156515 0.49975991
vn -0.66250330 -0.24680344 0.70723224
vn -0.66250330 -0.24680344 -0.70723224
vn -0.53451751 -0.68156515 -0.49975991
vn -0.53451751 -0.68156515 0.49975991
vn -0.66250330 -0.24680344 0.70723224
vn -0.66250330 -0.24680344 -0.70723224
vn -0.53451751 -0.68156515 -0.49975991
vn -0.53451751 -0.68156515 0.49975991
vn -0.66250330 -0.24680344 0.70723224
vn -0.66250330 -0.24680344 -0.70723224
vn -0.53451751 -0.68156515 -0.49975991
vn -0.53451751 -0.68156515 0.49975991
vn -0.66250330 -0.24680344 0.70723224
vn -0.66250330 -0.24680344 -0.70723224
vn -0.53451751 -0.68156515 -0.49975991
vn -0.69272095 -0.11533520 -0.71192379
vn -0.69272095 -0.11533520 0.71192379
vn 0.69272095 0.11533520 0.71192379
vn 0.69272095 0.11533520 -0.71192379
vn -0.69272095 -0.11533520 -0.71192379
vn -0.69272095 -0.11533520 0.71192379
vn 0.69272095 0.11533520 0.71192379
vn 0.69272095 0.11533520 -0.71192379
vn -0.69272095 -0.11533520 -0.71192379
vn -0.69272095 -0.11533520 0.71192379
vn 0.69272095 0.11533520 0.71192379
vn 0.69272095 0.11533520 -0.71192379
vn -0.69272095 -0.11533520 -0.71192379
vn -0.69272095 -0.11533520 0.71192379
vn 0.69272095 0.11533520 0.71192379
vn 0.69272095 0.11533520 -0.71192379
vn -0.69272095 -0.11533520 -0.71192379
vn -0.69272095 -0.11533520 0.71192379
vn 0.69272095 0.11533520 0.71192379
vn 0.69272095 0.11533520 -0.71192379
vn -0.69619663 -0.10067859 -0.71075599
vn -0.69619663 -0.10067859 0.71075599
vn 0.69031639 0.12439728 0.71273319
vn 0.69031639 0.12439728 -0.71273319
vn -0.69619663 -0.10067859 -0.71075599
vn -0.69619663 -0.10067859 0.71075599
vn 0.69031639 0.12439728 0.71273319
vn 0.69031639 0.12439728 -0.71273319
vn -0.69619663 -0.10067859 -0.71075599
vn -0.69619663 -0.10067859 0.71075599
vn 0.69031639 0.12439728 0.71273319
vn 0.69031639 0.12439728 -0.71273319
vn -0.69619663 -0.10067859 -0.71075599
vn -0.69619663 -0.10067859 0.71075599
vn 0.69031639 0.12439728 0.71273319
vn 0.69031639 0.12439728 -0.71273319
vn -0.69619663 -0.10067859 -0.71075599
vn -0.69619663 -0.10067859 0.71075599
vn 0.69031639 0.12439728 0.71273319
vn 0.69031639 0.12439728 -0.71273319
vn -0.55490853 -0.40306876 -0.72774453
vn -0.55490853 -0.40306876 0.72774453
vn 0.56000058 0.40908809 0.72044867
vn 0.56000058 0.40908809 -0.72044867
vn -0.55490853 -0.40306876 -0.72774453
vn -0.55490853 -0.40306876 0.72774453
vn 0.56000058 0.40908809 0.72044867
vn 0.56000058 0.40908809 -0.72044867
vn -0.55490853 -0.40306876 -0.72774453
vn -0.55490853 -0.40306876 0.72774453
vn 0.56000058 0.40908809 0.72044867
vn 0.56000058 0.40908809 -0.72044867
vn -0.55490853 -0.40306876 -0.72774453
vn -0.55490853 -0.40306876 0.72774453
vn 0.56000058 0.40908809 0.72044867
vn 0.56000058 0.40908809 -0.72044867
vn -0.55490853 -0.40306876 -0.72774453
vn -0.55490853 -0.40306876 0.72774453
vn 0.56000058 0.40908809 0.72044867
vn 0.56000058 0.40908809 -0.72044867
vn -0.26725285 -0.64616543 -0.71487492
vn -0.26725285 -0.64616543 0.71487492
vn 0.31035421 0.62690597 0.71461120
vn 0.31035421 0.62690597 -0.71461120
vn -0.26725285 -0.64616543 -0.71487492
vn -0.26725285 -0.64616543 0.71487492
vn 0.31035421 0.62690597 0.71461120
vn 0.31035421 0.62690597 -0.71461120
vn -0.26725285 -0.64616543 -0.71487492
vn -0.26725285 -0.64616543 0.71487492
vn 0.31035421 0.62690597 0.71461120
vn 0.31035421 0.62690597 -0.71461120
vn -0.26725285 -0.64616543 -0.71487492
vn -0.26725285 -0.64616543 0.71487492
vn 0.31035421 0.62690597 0.71461120
vn 0.31035421 0.62690597 -0.71461120
vn -0.26725285 -0.64616543 -0.71487492
vn -0.26725285 -0.64616543 0.71487492
vn 0.31035421 0.62690597 0.71461120
vn 0.31035421 0.62690597 -0.71461120
vn -0.68821295 -0.36589871 -0.62648309
vn -0.68821295 -0.36589871 0.62648309
vn -0.36576861 0.75122142 0.54943581
vn -0.36576861 0.75122142 -0.54943581
vn -0.68821295 -0.36589871 -0.62648309
vn -0.68821295 -0.36589871 0.62648309
vn -0.36576861 0.75122142 0.54943581
vn -0.36576861 0.75122142 -0.54943581
vn -0.68821295 -0.36589871 -0.62648309
vn -0.68821295 -0.36589871 0.62648309
vn -0.36576861 0.75122142 0.54943581
vn -0.36576861 0.75122142 -0.54943581
vn -0.68821295 -0.36589871 -0.62648309
vn -0.68821295 -0.36589871 0.62648309
vn -0.36576861 0.75122142 0.54943581
vn -0.36576861 0.75122142 -0.54943581
vn -0.68821295 -0.36589871 -0.62648309
vn -0.68821295 -0.36589871 0.62648309
vn -0.36576861 0.75122142 0.54943581
vn -0.36576861 0.75122142 -0.54943581
vn -1.00000000 0.0000000e+0 0.0000000e+0
vn 0.25280285 0.96743730 1.2481688e-2
vn 0.25280285 0.96743730 1.2481688e-2
vn 9.6636374e-16 0.0000000e+0 -1.00000000
vn -1.00000000 0.0000000e+0 0.0000000e+0
vn 9.6636374e-16 0.0000000e+0 1.00000000
vn 0.25280285 0.96743730 -1.2481688e-2
vn 0.25280285 0.96743730 -1.2481688e-2
vn -1.00000000 2.4034227e-16 0.0000000e+0
vn -1.00000000 2.4034227e-16 0.0000000e+0
vn 0.0000000e+0 0.0000000e+0 -1.00000000
vn 0.0000000e+0 -1.00000000 0.0000000e+0
vn 0.0000000e+0 -1.00000000 0.0000000e+0
vn 0.0000000e+0 -1.00000000 0.0000000e+0
vn 0.94450976 0.32848336 0.0000000e+0
vn 0.0000000e+0 -1.00000000 0.0000000e+0
vn 0.94450976 0.32848336 0.0000000e+0
vn 0.0000000e+0 0.0000000e+0 1.00000000
vn 0.0000000e+0 -1.00000000 0.0000000e+0
vn 0.0000000e+0 -1.00000000 0.0000000e+0
vn 0.0000000e+0 -1.00000000 0.0000000e+0
vn 0.94450976 0.32848336 0.0000000e+0
vn 2.4162678e-15 0.0000000e+0 -1.00000000
vn 0.51231075 0.85875493 8.8123239e-3
vn 0.51231075 0.85875493 8.8123239e-3
vn 0.51231075 0.85875493 8.8123239e-3
vn 2.4162678e-15 0.0000000e+0 1.00000000
vn 0.51231075 0.85875493 -8.8123239e-3
vn 0.51231075 0.85875493 -8.8123239e-3
vn 0.51231075 0.85875493 -8.8123239e-3
vn 0.84206423 0.53937726 0.0000000e+0
vn 8.0542260e-16 0.0000000e+0 1.00000000
vn 8.0542260e-16 0.0000000e+0 1.00000000
vn 8.0542260e-16 0.0000000e+0 1.00000000
vn 0.84206423 0.53937726 0.0000000e+0
vn 0.84206423 0.53937726 0.0000000e+0
vn 0.84206423 0.53937726 0.0000000e+0
vn 8.0542260e-16 0.0000000e+0 -1.00000000
vn 0.88184122 0.47154645 0.0000000e+0
vn 8.0542260e-16 0.0000000e+0 -1.00000000
vn 0.88184122 0.47154645 0.0000000e+0
vn 0.88184122 0.47154645 0.0000000e+0
vn 8.0542260e-16 0.0000000e+0 -1.00000000
vn 0.88184122 0.47154645 0.0000000e+0
vn 8.4565789e-16 0.0000000e+0 1.00000000
vn 8.4565789e-16 0.0000000e+0 1.00000000
vn 0.29823532 0.95415646 -2.5320813e-2
vn 0.29823532 0.95415646 -2.5320813e-2
vn 0.29823532 0.95415646 -2.5320813e-2
vn 0.29823532 0.95415646 -2.5320813e-2
vn 8.4565789e-16 0.0000000e+0 1.00000000
vn 8.4565789e-16 0.0000000e+0 1.00000000
vn 8.4565789e-16 0.0000000e+0 -1.00000000
vn 0.29823532 0.95415646 2.5320813e-2
vn 0.29823532 0.95415646 2.5320813e-2
vn 0.29823532 0.95415646 2.5320813e-2
vn 0.29823532 0.95415646 2.5320813e-2
vn 8.4565789e-16 0.0000000e+0 -1.00000000
vn 8.4565789e-16 0.0000000e+0 -1.00000000
vn 8.4565789e-16 0.0000000e+0 -1.00000000
vn 1.1412302e-3 -3.3026537e-2 -0.99945382
vn -0.96619627 0.25780760 0.0000000e+0
vn 1.1412302e-3 -3.3026537e-2 -0.99945382
vn -0.96619627 0.25780760 0.0000000e+0
vn 1.1412302e-3 -3.3026537e-2 -0.99945382
vn -0.96619627 0.25780760 0.0000000e+0
vn -0.96619627 0.25780760 0.0000000e+0
vn 1.1412302e-3 -3.3026537e-2 -0.99945382
vn -1.5066944e-2 -3.4836399e-2 0.99927945
vn -1.5066944e-2 -3.4836399e-2 0.99927945
vn -0.96619627 0.25780760 0.0000000e+0
vn -0.96619627 0.25780760 0.0000000e+0
vn 0.21220018 0.97708380 1.6683150e-2
vn -6.8513945e-3 -3.4206817e-2 0.99939129
vn 0.98091962 -0.19441372 0.0000000e+0
vn 0.21220018 0.97708380 1.6683150e-2
vn -6.8513945e-3 -3.4206817e-2 0.99939129
vn 0.21220018 0.97708380 1.6683150e-2
vn 0.21220018 0.97708380 1.6683150e-2
vn -2.1103183e-2 -3.2266733e-2 -0.99925648
vn 0.24363768 0.96975767 -1.4516677e-2
vn -2.1103183e-2 -3.2266733e-2 -0.99925648
vn 0.98091962 -0.19441372 0.0000000e+0
vn 0.24363768 0.96975767 -1.4516677e-2
vn 0.24363768 0.96975767 -1.4516677e-2
vn -2.1103183e-2 -3.2266733e-2 -0.99925648
vn 0.27419163 0.96167508 0.0000000e+0
vn 0.27419163 0.96167508 0.0000000e+0
vn -1.4687603e-2 -5.7222451e-2 -0.99825341
vn -1.4687603e-2 -5.7222451e-2 -0.99825341
vn 0.27419163 0.96167508 0.0000000e+0
vn 0.27419163 0.96167508 0.0000000e+0
vn -1.4687603e-2 -5.7222451e-2 -0.99825341
vn -1.4687603e-2 -5.7222451e-2 -0.99825341
vn 0.27419163 0.96167508 0.0000000e+0
vn -9.5872680e-3 -3.6004679e-2 0.99930563
vn -9.5872680e-3 -3.6004679e-2 0.99930563
vn 0.27419163 0.96167508 0.0000000e+0
vn -0.58279300 0.81262065 0.0000000e+0
vn 1.9328735e-2 -9.7845947e-2 -0.99501385
vn -0.58279300 0.81262065 0.0000000e+0
vn -0.58279300 0.81262065 0.0000000e+0
vn -0.58279300 0.81262065 0.0000000e+0
vn -1.0866472e-2 -5.6050858e-2 0.99836878
vn -0.58279300 0.81262065 0.0000000e+0
vn -1.0866472e-2 -5.6050858e-2 0.99836878
vn -0.58279300 0.81262065 0.0000000e+0
vn 0.97978295 0.20006342 0.0000000e+0
vn -2.0629771e-2 -4.8970556e-2 0.99858715
vn 0.97978295 0.20006342 0.0000000e+0
vn 0.97978295 0.20006342 0.0000000e+0
vn 0.97978295 0.20006342 0.0000000e+0
vn 0.97978295 0.20006342 0.0000000e+0
vn -2.0629771e-2 -4.8970556e-2 0.99858715
vn 0.99994942 -1.0058111e-2 0.0000000e+0
vn -5.5899915e-2 -5.9940761e-2 -0.99663549
vn 0.99994942 -1.0058111e-2 0.0000000e+0
vn 0.99994942 -1.0058111e-2 0.0000000e+0
vn 0.99994942 -1.0058111e-2 0.0000000e+0
vn 0.99994942 -1.0058111e-2 0.0000000e+0
vn 0.30838747 0.95126083 5.5633006e-17
vn 0.56139505 0.0000000e+0 -0.82754794
vn -1.00000000 -1.4870722e-16 0.0000000e+0
vn 0.30838747 0.95126083 5.5633006e-17
vn 0.30838747 0.95126083 5.5633006e-17
vn -1.00000000 -1.4870722e-16 0.0000000e+0
vn -1.00000000 -1.4870722e-16 0.0000000e+0
vn -1.00000000 -1.4870722e-16 0.0000000e+0
vn 0.56139505 0.0000000e+0 -0.82754794
vn -1.00000000 -1.4870722e-16 0.0000000e+0
vn -1.00000000 -2.5478605e-16 0.0000000e+0
vn -1.00000000 -2.5478605e-16 0.0000000e+0
vn -1.00000000 -2.5478605e-16 0.0000000e+0
vn 0.30838747 0.95126083 0.0000000e+0
vn -1.00000000 -2.5478605e-16 0.0000000e+0
vn -0.22055919 0.0000000e+0 0.97537359
vn 0.30838747 0.95126083 0.0000000e+0
vn -0.22055919 0.0000000e+0 -0.97537359
vn -1.00000000 1.0359836e-16 0.0000000e+0
vn -1.00000000 1.0359836e-16 0.0000000e+0
vn -1.00000000 1.0359836e-16 0.0000000e+0
vn 0.30838747 0.95126083 0.0000000e+0
vn -0.22055919 0.0000000e+0 -0.97537359
vn -1.00000000 1.0359836e-16 0.0000000e+0
vn 0.30838747 0.95126083 -5.5633006e-17
vn 0.30838747 0.95126083 -5.5633006e-17
vn 0.30838747 0.95126083 -5.5633006e-17
vn -1.00000000 1.2017114e-16 0.0000000e+0
vn -1.00000000 1.2017114e-16 0.0000000e+0
vn -1.00000000 1.2017114e-16 0.0000000e+0
vn 0.56139505 0.0000000e+0 0.82754794
vn -1.00000000 1.2017114e-16 0.0000000e+0
vn 0.30838747 0.95126083 0.0000000e+0
vn 0.94838748 -7.2524277e-2 0.30870927
vn 0.94838748 -7.2524277e-2 0.30870927
vn 0.94838748 -7.2524277e-2 0.30870927
vn 0.94838748 -7.2524277e-2 0.30870927
vn 0.94838748 -7.2524277e-2 0.30870927
vn 0.94838748 -7.2524277e-2 0.30870927
vn 0.30838747 0.95126083 0.0000000e+0
vn 0.99149271 -0.13016222 0.0000000e+0
vn 0.99149271 -0.13016222 0.0000000e+0
vn -0.22055919 0.0000000e+0 -0.97537359
vn 0.99149271 -0.13016222 0.0000000e+0
vn 0.30838747 0.95126083 0.0000000e+0
vn -0.22055919 0.0000000e+0 0.97537359
vn 0.99310997 -0.11718609 0.0000000e+0
vn 0.99310997 -0.11718609 0.0000000e+0
vn 0.99310997 -0.11718609 0.0000000e+0
vn 0.99310997 -0.11718609 0.0000000e+0
vn 0.99310997 -0.11718609 0.0000000e+0
vn 0.30838747 0.95126083 0.0000000e+0
vn -0.22055919 0.0000000e+0 0.97537359
vn 0.96793604 -0.10682233 -0.22735175
vn 0.96793604 -0.10682233 -0.22735175
vn 0.30838747 0.95126083 0.0000000e+0
vn 0.96793604 -0.10682233 -0.22735175
vn 0.96793604 -0.10682233 -0.22735175
vn 0.30838747 0.95126083 0.0000000e+0
vn 0.56139505 0.0000000e+0 0.82754794
vn -1.00000000 0.0000000e+0 0.0000000e+0
vn 0.30838747 0.95126083 0.0000000e+0
vn 0.56139505 0.0000000e+0 0.82754794
vn -1.00000000 0.0000000e+0 0.0000000e+0
vn 0.88357089 0.0000000e+0 0.46829742
vn 0.88357089 0.0000000e+0 0.46829742
vn 0.30838747 0.95126083 0.0000000e+0
vn 0.30838747 0.95126083 0.0000000e+0
vn 1.00000000 0.0000000e+0 0.0000000e+0
vn -0.22055919 0.0000000e+0 -0.97537359
vn -0.22055919 0.0000000e+0 -0.97537359
vn 0.30838747 0.95126083 0.0000000e+0
vn 1.00000000 0.0000000e+0 0.0000000e+0
vn 0.30838747 0.95126083 0.0000000e+0
vn -0.22055919 0.0000000e+0 -0.97537359
vn -1.00000000 0.0000000e+0 0.0000000e+0
vn 0.30838747 0.95126083 0.0000000e+0
vn -0.22055919 0.0000000e+0 0.97537359
vn -1.00000000 0.0000000e+0 0.0000000e+0
vn 0.30838747 0.95126083 0.0000000e+0
vn -1.00000000 0.0000000e+0 0.0000000e+0
vn -0.22055919 0.0000000e+0 0.97537359
vn -0.22055919 0.0000000e+0 0.97537359
vn 1.00000000 0.0000000e+0 0.0000000e+0
vn 0.30838747 0.95126083 0.0000000e+0
vn 0.30838747 0.95126083 0.0000000e+0
vn 0.88357089 0.0000000e+0 -0.46829742
vn 0.88357089 0.0000000e+0 -0.46829742
vn 0.30838747 0.95126083 0.0000000e+0
vn 0.88357089 0.0000000e+0 -0.46829742
vn 0.88357089 0.0000000e+0 -0.46829742
vn 0.30838747 0.95126083 0.0000000e+0
vn 0.56139505 0.0000000e+0 -0.82754794
vn -1.00000000 0.0000000e+0 0.0000000e+0
vn 0.20690072 0.97816420 -1.9669544e-2
vn 0.20690072 0.97816420 -1.9669544e-2
vn 3.3672509e-15 0.0000000e+0 1.00000000
vn 0.20690072 0.97816420 -1.9669544e-2
vn 0.20690072 0.97816420 -1.9669544e-2
vn 0.20690072 0.97816420 -1.9669544e-2
vn 0.20690072 0.97816420 -1.9669544e-2
vn 0.36001827 0.93279055 -1.6989478e-2
vn 0.36001827 0.93279055 -1.6989478e-2
vn 2.4288345e-2 0.0000000e+0 0.99970499
vn 2.4288345e-2 0.0000000e+0 0.99970499
vn 0.36001827 0.93279055 -1.6989478e-2
vn 2.4288345e-2 0.0000000e+0 0.99970499
vn 0.29823532 0.95415646 -2.5320813e-2
vn 0.29823532 0.95415646 -2.5320813e-2
vn 1.6836255e-15 0.0000000e+0 1.00000000
vn 1.6836255e-15 0.0000000e+0 1.00000000
vn 0.22595468 0.97396355 1.8424895e-2
vn 0.22595468 0.97396355 1.8424895e-2
vn 1.6836255e-15 0.0000000e+0 -1.00000000
vn 0.22595468 0.97396355 1.8424895e-2
vn 0.22595468 0.97396355 1.8424895e-2
vn 0.22595468 0.97396355 1.8424895e-2
vn 0.36001827 0.93279055 1.6989478e-2
vn 0.36001827 0.93279055 1.6989478e-2
vn 3.6435208e-2 0.0000000e+0 -0.99933602
vn 3.6435208e-2 0.0000000e+0 -0.99933602
vn 3.6435208e-2 0.0000000e+0 -0.99933602
vn 3.6435208e-2 0.0000000e+0 -0.99933602
vn 0.36001827 0.93279055 1.6989478e-2
vn 0.29823532 0.95415646 2.5320813e-2
vn 0.29823532 0.95415646 2.5320813e-2
vn -1.0208186e-15 0.0000000e+0 -1.00000000
vn -1.0208186e-15 0.0000000e+0 -1.00000000
vn 0.79897704 0.60136153 0.0000000e+0
vn 0.79897704 0.60136153 0.0000000e+0
vn 7.2822031e-2 0.0000000e+0 -0.99734495
vn 0.79897704 0.60136153 0.0000000e+0
vn 0.79897704 0.60136153 0.0000000e+0
vn 0.79897704 0.60136153 0.0000000e+0
vn 0.87326116 0.48725244 0.0000000e+0
vn 7.2822031e-2 0.0000000e+0 0.99734495
vn 0.87326116 0.48725244 0.0000000e+0
vn 0.87326116 0.48725244 0.0000000e+0
vn 7.2822031e-2 0.0000000e+0 0.99734495
vn 0.87326116 0.48725244 0.0000000e+0
vn 0.87326116 0.48725244 0.0000000e+0
vn 0.22472532 0.97407471 -2.6019114e-2
vn 1.8849735e-15 0.0000000e+0 -1.00000000
vn 1.8849735e-15 0.0000000e+0 -1.00000000
vn 0.22472532 0.97407471 -2.6019114e-2
vn 0.22472532 0.97407471 -2.6019114e-2
vn 0.22472532 0.97407471 -2.6019114e-2
vn 1.8849735e-15 0.0000000e+0 -1.00000000
vn 0.22187381 0.97475369 2.5045143e-2
vn 8.1078970e-16 0.0000000e+0 1.00000000
vn 0.22187381 0.97475369 2.5045143e-2
vn 8.1078970e-16 0.0000000e+0 1.00000000
vn 0.29989661 0.95396560 -3.4149237e-3
vn 0.29989661 0.95396560 -3.4149237e-3
vn -2.1820409e-15 0.0000000e+0 -1.00000000
vn -1.00000000 0.0000000e+0 0.0000000e+0
vn 0.29989661 0.95396560 -3.4149237e-3
vn 0.30395294 0.95265866 7.3546654e-3
vn 1.1783021e-15 0.0000000e+0 1.00000000
vn -1.00000000 0.0000000e+0 0.0000000e+0
vn 1.1783021e-15 0.0000000e+0 1.00000000
vn 0.30395294 0.95265866 7.3546654e-3
vn 0.30395294 0.95265866 7.3546654e-3
vn 0.30395294 0.95265866 7.3546654e-3
vn 0.30395294 0.95265866 7.3546654e-3
vn -1.00000000 0.0000000e+0 0.0000000e+0
vn 0.31679396 0.94841992 -1.1884223e-2
vn 0.31679396 0.94841992 -1.1884223e-2
vn 4.8576690e-2 0.0000000e+0 0.99881946
vn 4.8576690e-2 0.0000000e+0 0.99881946
vn 0.31679396 0.94841992 -1.1884223e-2
vn 4.8576690e-2 0.0000000e+0 0.99881946
vn 0.22753491 0.97344713 -2.5070745e-2
vn 1.7972834e-15 0.0000000e+0 1.00000000
vn 1.7972834e-15 0.0000000e+0 1.00000000
vn 0.22753491 0.97344713 -2.5070745e-2
vn 1.7972834e-15 0.0000000e+0 1.00000000
vn 0.31004425 0.95070512 5.6870793e-3
vn 0.31004425 0.95070512 5.6870793e-3
vn 3.6435208e-2 0.0000000e+0 -0.99933602
vn 3.6435208e-2 0.0000000e+0 -0.99933602
vn 0.22472317 0.97407695 2.5953504e-2
vn -5.6793066e-18 0.0000000e+0 -1.00000000
vn -5.6793066e-18 0.0000000e+0 -1.00000000
vn 0.22472317 0.97407695 2.5953504e-2
vn 0.22472317 0.97407695 2.5953504e-2
vn 0.22472317 0.97407695 2.5953504e-2
vn -5.6793066e-18 0.0000000e+0 -1.00000000
vn 0.28458171 0.95865179 0.0000000e+0
vn 7.2822031e-2 0.0000000e+0 0.99734495
vn 1.00000000 0.0000000e+0 0.0000000e+0
vn 0.28458171 0.95865179 0.0000000e+0
vn 0.28458171 0.95865179 0.0000000e+0
vn 1.00000000 0.0000000e+0 0.0000000e+0
vn 7.2822031e-2 0.0000000e+0 -0.99734495
vn 0.28458171 0.95865179 0.0000000e+0
vn 0.28458171 0.95865179 0.0000000e+0
vn 7.2822031e-2 0.0000000e+0 -0.99734495
vn 1.00000000 0.0000000e+0 0.0000000e+0
vn -0.34139485 -0.42941414 -0.83609393
vn -0.34139485 -0.42941414 -0.83609393
vn -0.34139485 -0.42941414 -0.83609393
vn -0.34139485 -0.42941414 -0.83609393
vn -0.34139485 -0.42941414 -0.83609393
vn -0.34139485 -0.42941414 -0.83609393
vn -0.53271403 -0.45510841 0.71350690
vn -0.53271403 -0.45510841 0.71350690
vn -0.53271403 -0.45510841 0.71350690
vn -0.53271403 -0.45510841 0.71350690
vn -0.53271403 -0.45510841 0.71350690
vn -0.53271403 -0.45510841 0.71350690
vn -0.53271403 -0.45510841 0.71350690
vn -0.53271403 -0.45510841 0.71350690
vn -0.77633701 -4.7952734e-2 0.62849136
vn -0.77633701 -4.7952734e-2 0.62849136
vn -0.77633701 -4.7952734e-2 0.62849136
vn -0.77633701 -4.7952734e-2 0.62849136
vn -0.77633701 -4.7952734e-2 0.62849136
vn -0.87625017 -2.7845595e-2 -0.48105121
vn -0.87625017 -2.7845595e-2 -0.48105121
vn -0.87625017 -2.7845595e-2 -0.48105121
vn -0.87625017 -2.7845595e-2 -0.48105121
vn -0.87625017 -2.7845595e-2 -0.48105121
vn -0.87625017 -2.7845595e-2 -0.48105121
vn -0.87625017 -2.7845595e-2 -0.48105121
vn -0.74049868 0.67205782 0.0000000e+0
vn -0.58370048 0.81196905 0.0000000e+0
vn 0.74049868 -0.67205782 0.0000000e+0
vn -0.74049868 0.67205782 0.0000000e+0
vn 0.74049868 -0.67205782 0.0000000e+0
vn 0.58370048 -0.81196905 0.0000000e+0
vn -0.58370048 0.81196905 0.0000000e+0
vn -0.74049868 0.67205782 0.0000000e+0
vn 0.74049868 -0.67205782 0.0000000e+0
vn 0.58370048 -0.81196905 0.0000000e+0
vn 0.58370048 -0.81196905 0.0000000e+0
vn -0.58370048 0.81196905 0.0000000e+0
vn -0.58370048 0.81196905 0.0000000e+0
vn 0.58370048 -0.81196905 0.0000000e+0
vn 0.58370048 -0.81196905 0.0000000e+0
vn -0.58370048 0.81196905 0.0000000e+0
vn 0.58370048 -0.81196905 0.0000000e+0
vn -0.58370048 0.81196905 0.0000000e+0
vn -0.74049868 0.67205782 0.0000000e+0
vn 0.74049868 -0.67205782 0.0000000e+0
vn -0.74049868 0.67205782 0.0000000e+0
vn 0.74049868 -0.67205782 0.0000000e+0
vn -0.74049868 0.67205782 0.0000000e+0
vn 0.74049868 -0.67205782 0.0000000e+0
g Cube1_Cube1_auv
usemtl Cube1_auv
s 1
f 11/16/1 16/9/232 47/15/414
f 11/16/1 17/14/243 16/9/236
f 12/13/2 20/17/254 14/19/219
f 12/13/2 21/8/264 18/11/246
f 12/13/2 48/12/422 15/5/227
f 12/13/2 50/20/429 48/12/420
f 13/24/218 17/14/244 11/16/1
f 13/24/213 47/15/413 49/25/425
f 14/19/220 50/20/431 12/13/2
f 15/5/224 21/8/259 12/13/2
f 16/9/230 17/14/240 22/10/266
f 18/11/247 20/17/256 12/13/2
f 19/18/250 17/14/239 13/24/211
f 25/350/293 33/343/341 28/341/313
f 29/365/323 35/353/352 24/352/286
f 33/343/340 25/350/288 34/351/345
f 35/353/348 29/365/316 36/366/353
f 40/42/375 46/44/409 51/43/440
f 40/42/374 52/36/445 41/35/381
f 41/35/380 52/36/444 39/21/367
f 43/49/392 54/65/458 53/48/450
f 43/49/391 56/45/465 45/47/401
f 44/66/398 42/100/384 54/65/454
f 47/15/418 13/24/215 11/16/1
f 51/43/442 52/36/447 40/42/377
f 53/48/451 56/45/468 43/49/393
f 54/65/453 43/49/390 44/66/397
f 55/46/460 51/43/439 46/44/406
f 209/441/502 212/468/513 210/442/507
f 210/75/503 213/74/516 209/437/499
f 211/467/508 212/468/511 209/441/497
f 214/436/518 209/437/496 213/74/514
s 2
f 1/112/153 42/111/387 10/165/207
f 3/497/165 8/498/194 4/26/172
f 4/26/167 8/498/189 7/27/181
f 5/243/175 43/229/388 45/234/400
f 6/129/179 40/117/376 9/106/200
f 6/129/178 46/119/405 40/117/373
f 7/27/185 46/57/410 6/28/180
f 8/498/192 45/505/404 7/27/187
f 9/106/199 39/63/369 2/69/157
f 9/106/197 40/117/372 41/86/378
f 10/165/205 42/111/382 44/160/396
f 10/165/206 43/229/394 5/243/176
f 15/109/229 23/64/274 30/67/326
f 15/109/228 54/125/457 42/111/385
f 16/58/235 26/23/297 39/63/371
f 23/64/275 42/111/386 1/112/152
f 25/4/292 29/3/322 24/1/284
f 27/22/303 26/23/295 16/58/231
f 29/3/315 25/4/287 28/6/310
f 32/391/337 33/392/342 31/369/332
f 34/370/344 31/369/329 33/392/338
f 36/296/355 37/297/359 35/285/350
f 38/289/362 35/285/347 37/297/356
f 39/63/370 26/23/296 2/69/158
f 39/63/368 47/68/417 16/58/234
f 41/86/379 39/63/365 9/106/198
f 42/111/383 23/64/271 15/109/223
f 44/160/395 43/229/389 10/165/204
f 45/505/399 8/498/191 5/499/174
f 45/505/402 56/488/469 46/57/408
f 46/57/411 7/27/186 45/505/403
f 46/57/407 56/488/464 55/136/461
f 47/68/415 39/63/366 52/77/443
f 48/120/419 50/122/428 54/125/452
f 49/81/423 47/68/412 51/83/437
f 49/81/427 55/78/463 50/122/433
f 50/122/434 56/123/467 53/124/448
f 51/83/438 55/78/459 49/81/424
f 52/77/446 51/83/441 47/68/416
f 53/124/449 54/125/456 50/122/435
f 54/125/455 15/109/226 48/120/421
f 56/123/466 50/122/432 55/78/462
f 209/480/501 210/481/506 211/452/510
f 210/481/504 209/480/500 213/502/517
f 211/452/509 210/481/505 212/453/512
f 213/502/515 209/480/498 214/501/519
s 3
f 13/24/212 20/17/253 19/18/251
f 13/438/217 50/74/436 14/73/222
f 14/19/221 20/17/255 13/24/216
f 15/5/225 30/2/324 21/8/260
f 16/9/233 22/10/270 27/7/307
f 17/14/242 20/17/257 18/11/248
f 18/11/245 21/8/261 17/14/241
f 19/18/249 20/17/252 17/14/238
f 21/8/263 29/3/320 22/10/268
f 22/10/265 17/14/237 21/8/258
f 23/342/279 37/328/360 30/327/327
f 27/7/306 22/10/269 28/6/312
f 27/394/308 31/377/333 26/376/301
f 28/6/311 22/10/267 29/3/318
f 28/305/314 33/306/343 27/289/309
f 29/3/319 21/8/262 30/2/325
f 30/327/328 37/328/361 29/305/321
f 31/377/330 27/394/304 32/395/335
f 32/290/336 27/289/305 33/306/339
f 36/306/354 29/305/317 37/328/357
f 37/328/358 23/342/272 38/344/363
f 49/439/426 50/74/430 13/438/214
s 4
f 1/34/155 61/95/3 23/140/277
f 2/236/156 59/235/484 9/399/195
f 2/492/159 64/431/6 59/482/488
f 3/211/161 57/330/470 8/225/188
f 3/302/164 68/448/10 57/450/473
f 4/301/171 67/447/9 3/302/162
f 6/466/177 9/399/196 7/491/182
f 7/491/183 58/259/479 4/500/168
f 8/225/190 10/291/203 5/247/173
f 8/225/193 57/330/471 10/291/208
f 9/399/202 58/259/481 7/491/184
f 10/291/210 60/348/493 1/349/154
f 23/140/276 62/194/4 24/164/283
f 24/164/285 35/163/351 23/140/280
f 24/164/281 63/310/5 25/393/291
f 25/393/290 63/310/5 26/405/299
f 26/405/302 31/407/334 25/393/294
f 26/405/300 64/431/6 2/492/160
f 34/397/346 25/393/289 31/407/331
f 38/139/364 23/140/273 35/163/349
f 57/39/474 84/41/26 60/37/495
f 58/259/480 9/399/201 59/235/485
f 58/445/476 65/449/7 4/301/166
f 58/479/482 74/434/16 65/429/7
f 59/482/487 76/478/18 58/479/483
f 60/348/492 10/291/209 57/330/472
f 60/37/489 61/95/3 1/34/151
f 60/37/494 82/84/24 61/95/3
f 61/95/3 71/113/13 62/194/4
f 62/194/4 23/140/278 61/95/3
f 62/194/4 78/299/20 63/310/5
f 63/310/5 24/164/282 62/194/4
f 63/310/5 87/334/29 64/431/6
f 64/431/6 26/405/298 63/310/5
f 64/431/6 76/478/18 59/482/486
f 65/429/7 85/418/27 66/308/8
f 66/446/8 4/301/169 65/449/7
f 66/308/8 80/219/22 67/196/9
f 67/447/9 4/301/170 66/446/8
f 67/196/9 69/185/11 68/110/10
f 68/448/10 3/302/163 67/447/9
f 68/110/10 72/115/14 81/85/23
f 68/110/10 84/41/26 57/39/475
f 69/185/11 80/219/22 70/183/12
f 69/373/11 104/388/46 72/374/14
f 70/183/12 62/194/4 71/113/13
f 70/183/12 79/218/21 62/194/4
f 70/182/12 102/159/44 69/181/11
f 70/182/12 115/166/57 102/159/44
f 71/113/13 82/84/24 72/115/14
f 71/316/13 115/145/57 70/144/12
f 72/115/14 68/110/10 69/185/11
f 72/325/14 104/347/46 71/326/13
f 73/440/15 86/428/28 74/434/16
f 73/187/15 128/188/70 76/53/18
f 74/434/16 58/479/477 75/473/17
f 74/434/16 85/418/27 65/429/7
f 74/170/16 89/199/31 73/169/15
f 75/473/17 58/479/478 76/478/18
f 75/313/17 91/323/33 74/314/16
f 76/478/18 64/431/6 73/440/15
f 76/354/18 91/346/33 75/355/17
f 76/354/18 126/320/68 92/335/34
f 77/298/19 88/333/30 78/299/20
f 77/371/19 97/382/39 80/378/22
f 78/299/20 62/194/4 79/218/21
f 78/299/20 87/334/29 63/310/5
f 78/143/20 97/130/39 77/142/19
f 78/143/20 118/89/60 98/116/40
f 79/218/21 70/183/12 80/219/22
f 79/253/21 120/256/62 78/92/20
f 80/219/22 66/308/8 77/298/19
f 80/219/22 69/185/11 67/196/9
f 80/262/22 99/304/41 79/263/21
f 81/85/23 72/115/14 82/84/24
f 81/372/23 105/385/47 84/380/26
f 82/84/24 60/37/490 83/40/25
f 82/84/24 71/113/13 61/95/3
f 82/232/24 105/222/47 81/231/23
f 82/232/24 110/174/52 106/195/48
f 83/40/25 60/37/491 84/41/26
f 83/132/25 112/133/54 82/30/24
f 84/41/26 68/110/10 81/85/23
f 84/400/26 107/419/49 83/401/25
f 85/418/27 74/434/16 86/428/28
f 85/379/27 96/383/38 88/375/30
f 86/428/28 64/431/6 87/334/29
f 86/428/28 73/440/15 64/431/6
f 86/108/28 94/71/36 85/107/27
f 86/108/28 123/79/65 94/71/36
f 87/334/29 78/299/20 88/333/30
f 87/408/29 123/201/65 86/200/28
f 88/333/30 66/308/8 85/418/27
f 88/333/30 77/298/19 66/308/8
f 88/223/30 96/233/38 87/224/29
f 89/199/31 74/170/16 90/184/32
f 89/199/31 128/192/70 73/169/15
f 90/324/32 74/314/16 91/323/33
f 90/459/32 91/483/33 89/462/31
f 91/346/33 76/354/18 92/335/34
f 92/484/34 89/462/31 91/483/33
f 92/484/34 126/485/68 89/462/31
f 93/87/35 85/107/27 94/71/36
f 93/387/35 96/383/38 85/379/27
f 94/272/36 96/204/38 93/271/35
f 94/272/36 121/205/63 95/208/37
f 95/258/37 87/224/29 96/233/38
f 95/208/37 96/204/38 94/272/36
f 95/258/37 121/280/63 87/224/29
f 97/130/39 78/143/20 98/116/40
f 98/455/40 99/426/41 97/454/39
f 98/455/40 118/456/60 99/426/41
f 99/304/41 80/262/22 100/284/42
f 99/304/41 120/294/62 79/263/21
f 100/384/42 80/378/22 97/382/39
f 100/425/42 97/454/39 99/426/41
f 101/168/43 69/181/11 102/159/44
f 101/386/43 104/388/46 69/373/11
f 102/357/44 104/274/46 101/356/43
f 102/357/44 113/276/55 103/275/45
f 103/396/45 71/326/13 104/347/46
f 103/275/45 104/274/46 102/357/44
f 103/396/45 113/404/55 71/326/13
f 105/222/47 82/232/24 106/195/48
f 106/421/48 107/360/49 105/420/47
f 106/421/48 110/422/52 107/360/49
f 107/419/49 84/400/26 108/412/50
f 107/419/49 112/414/54 83/401/25
f 108/389/50 84/380/26 105/385/47
f 108/359/50 105/420/47 107/360/49
f 109/358/51 107/360/49 110/422/52
f 109/433/51 112/414/54 107/419/49
f 109/433/51 129/432/71 112/414/54
f 110/174/52 82/232/24 111/209/53
f 110/422/52 129/362/71 109/358/51
f 111/32/53 82/30/24 112/133/54
f 111/209/53 131/210/73 110/174/52
f 112/133/54 131/29/73 111/32/53
f 113/276/55 102/357/44 114/361/56
f 113/404/55 136/368/78 116/367/58
f 114/137/56 102/159/44 115/166/57
f 114/361/56 134/362/76 113/276/55
f 115/145/57 71/316/13 116/317/58
f 115/166/57 134/138/76 114/137/56
f 116/367/58 71/326/13 113/404/55
f 116/317/58 136/318/78 115/145/57
f 117/422/59 99/426/41 118/456/60
f 117/338/59 120/294/62 99/304/41
f 117/338/59 137/337/79 120/294/62
f 118/89/60 78/143/20 119/126/61
f 118/456/60 137/423/79 117/422/59
f 119/93/61 78/92/20 120/256/62
f 119/126/61 139/127/81 118/89/60
f 120/256/62 139/91/81 119/93/61
f 121/205/63 94/272/36 122/269/64
f 121/280/63 144/246/86 124/245/66
f 122/60/64 94/71/36 123/79/65
f 122/269/64 142/270/84 121/205/63
f 123/201/65 87/408/29 124/409/66
f 123/79/65 142/61/84 122/60/64
f 124/245/66 87/224/29 121/280/63
f 124/409/66 144/410/86 123/201/65
f 125/463/67 89/462/31 126/485/68
f 125/228/67 128/192/70 89/199/31
f 125/228/67 145/227/87 128/192/70
f 126/320/68 76/354/18 127/340/69
f 126/485/68 145/460/87 125/463/67
f 127/55/69 76/53/18 128/188/70
f 127/340/69 147/339/89 126/320/68
f 128/188/70 147/54/89 127/55/69
f 129/362/71 110/422/52 130/423/72
f 129/432/71 152/417/94 132/415/74
f 130/175/72 110/174/52 131/210/73
f 130/423/72 150/424/92 129/362/71
f 131/29/73 112/133/54 132/131/74
f 131/210/73 150/173/92 130/175/72
f 132/415/74 112/414/54 129/432/71
f 132/131/74 152/134/94 131/29/73
f 133/277/75 113/276/55 134/362/76
f 133/403/75 136/368/78 113/404/55
f 133/403/75 153/406/95 136/368/78
f 134/138/76 115/166/57 135/167/77
f 134/362/76 153/278/95 133/277/75
f 135/146/77 115/145/57 136/318/78
f 135/167/77 155/161/97 134/138/76
f 136/318/78 155/147/97 135/146/77
f 137/423/79 118/456/60 138/457/80
f 137/337/79 160/303/102 140/295/82
f 138/90/80 118/89/60 139/127/81
f 138/457/80 158/458/100 137/423/79
f 139/91/81 120/256/62 140/254/82
f 139/127/81 158/88/100 138/90/80
f 140/295/82 120/294/62 137/337/79
f 140/254/82 160/255/102 139/91/81
f 141/206/83 121/205/63 142/270/84
f 141/279/83 144/246/86 121/280/63
f 141/279/83 161/283/103 144/246/86
f 142/61/84 123/79/65 143/80/85
f 142/270/84 161/207/103 141/206/83
f 143/202/85 123/201/65 144/410/86
f 143/80/85 163/72/105 142/61/84
f 144/410/86 163/203/105 143/202/85
f 145/460/87 126/485/68 146/486/88
f 145/227/87 168/198/110 148/193/90
f 146/321/88 126/320/68 147/339/89
f 146/486/88 166/487/108 145/460/87
f 147/54/89 128/188/70 148/186/90
f 147/339/89 166/315/108 146/321/88
f 148/193/90 128/192/70 145/227/87
f 148/186/90 168/189/110 147/54/89
f 149/363/91 129/362/71 150/424/92
f 149/435/91 152/417/94 129/432/71
f 149/435/91 169/444/111 152/417/94
f 150/173/92 131/210/73 151/197/93
f 150/239/92 169/250/111 149/240/91
f 151/31/93 131/29/73 152/134/94
f 151/197/93 171/176/113 150/173/92
f 152/332/94 171/311/113 151/331/93
f 153/278/95 134/362/76 154/363/96
f 153/406/95 176/402/118 156/390/98
f 154/135/96 134/138/76 155/161/97
f 154/214/96 174/220/116 153/215/95
f 155/147/97 136/318/78 156/319/98
f 155/161/97 174/121/116 154/135/96
f 156/390/98 136/368/78 153/406/95
f 156/494/98 176/490/118 155/493/97
f 157/424/99 137/423/79 158/458/100
f 157/345/99 160/303/102 137/337/79
f 157/345/99 177/381/119 160/303/102
f 158/88/100 139/127/81 159/118/101
f 158/179/100 177/191/119 157/180/99
f 159/94/101 139/91/81 160/255/102
f 159/118/101 179/105/121 158/88/100
f 160/178/102 179/171/121 159/177/101
f 161/207/103 142/270/84 162/273/104
f 161/283/103 184/268/126 164/257/106
f 162/59/104 142/61/84 163/72/105
f 162/493/104 182/496/124 161/494/103
f 163/203/105 144/410/86 164/411/106
f 163/72/105 182/51/124 162/59/104
f 164/257/106 144/246/86 161/283/103
f 164/475/106 184/471/126 163/474/105
f 165/461/107 145/460/87 166/487/108
f 165/230/107 168/198/110 145/227/87
f 165/230/107 185/248/127 168/198/110
f 166/315/108 147/339/89 167/336/109
f 166/241/108 185/252/127 165/242/107
f 167/56/109 147/54/89 168/189/110
f 167/336/109 187/322/129 166/315/108
f 168/282/110 187/260/129 167/281/109
f 169/250/111 150/239/92 170/249/112
f 169/444/111 192/469/134 172/430/114
f 170/162/112 150/173/92 171/176/113
f 170/249/112 190/264/132 169/250/111
f 171/311/113 152/332/94 172/312/114
f 171/176/113 190/114/132 170/162/112
f 172/430/114 152/417/94 169/444/111
f 172/312/114 192/288/134 171/311/113
f 173/221/115 153/215/95 174/220/116
f 173/416/115 176/402/118 153/406/95
f 173/416/115 193/451/135 176/402/118
f 174/121/116 155/161/97 175/141/117
f 174/220/116 193/238/135 173/221/115
f 175/489/117 155/493/97 176/490/118
f 175/141/117 195/82/137 174/121/116
f 176/490/118 195/476/137 175/489/117
f 177/191/119 158/179/100 178/190/120
f 177/381/119 200/413/142 180/329/122
f 178/76/120 158/88/100 179/105/121
f 178/190/120 198/216/140 177/191/119
f 179/171/121 160/178/102 180/172/122
f 179/105/121 198/50/140 178/76/120
f 180/329/122 160/303/102 177/381/119
f 180/172/122 200/157/142 179/171/121
f 181/495/123 161/494/103 182/496/124
f 181/300/123 184/268/126 161/283/103
f 181/300/123 201/398/143 184/268/126
f 182/51/124 163/72/105 183/62/125
f 182/496/124 201/504/143 181/495/123
f 183/470/125 163/474/105 184/471/126
f 183/62/125 203/38/145 182/51/124
f 184/471/126 203/464/145 183/470/125
f 185/252/127 166/241/108 186/251/128
f 185/248/127 208/292/150 188/226/130
f 186/309/128 166/315/108 187/322/129
f 186/251/128 206/266/148 185/252/127
f 187/260/129 168/282/110 188/261/130
f 187/322/129 206/286/148 186/309/128
f 188/226/130 168/198/110 185/248/127
f 188/261/130 208/244/150 187/260/129
f 189/265/131 169/250/111 190/264/132
f 189/472/131 192/469/134 169/444/111
f 190/114/132 171/176/113 191/128/133
f 190/212/132 192/158/134 189/157/131
f 191/287/133 171/311/113 192/288/134
f 191/213/133 192/158/134 190/212/132
f 193/238/135 174/220/116 194/237/136
f 194/70/136 174/121/116 195/82/137
f 194/150/136 195/151/137 193/102/135
f 195/476/137 176/490/118 196/477/138
f 196/443/138 176/402/118 193/451/135
f 196/103/138 193/102/135 195/151/137
f 197/217/139 177/191/119 198/216/140
f 197/427/139 200/413/142 177/381/119
f 198/50/140 179/105/121 199/52/141
f 198/155/140 200/97/142 197/96/139
f 199/154/141 179/171/121 200/157/142
f 199/156/141 200/97/142 198/155/140
f 201/504/143 182/496/124 202/503/144
f 202/33/144 182/51/124 203/38/145
f 202/148/144 203/149/145 201/101/143
f 203/464/145 184/471/126 204/465/146
f 204/364/146 184/268/126 201/398/143
f 204/104/146 201/101/143 203/149/145
f 205/267/147 185/252/127 206/266/148
f 205/307/147 208/292/150 185/248/127
f 206/286/148 187/322/129 207/293/149
f 206/152/148 208/99/150 205/98/147
f 207/240/149 187/260/129 208/244/150
f 207/153/149 208/99/150 206/152/148
